<svg width="1920" height="1842" viewBox="0 0 1920 1842" fill="none" xmlns="http://www.w3.org/2000/svg">
<g opacity="0.1">
<circle cx="1477" cy="1669" r="369.767" stroke="#2B72C0" stroke-width="2"/>
<circle cx="1477" cy="1669" r="932" stroke="#2B72C0" stroke-width="2"/>
<circle cx="1477" cy="1669" r="1668" stroke="#2B72C0" stroke-width="2"/>
</g>
<path d="M1380.63 1627.38C1340.24 1560.84 1319.05 1488.81 1328.27 1381.89C1300.1 1396.34 1273.67 1415.29 1249.74 1438.46C1189.65 1497.28 1157.24 1574.05 1152.5 1652.06V1652.3C1152.25 1656.29 1152.25 1660.28 1152 1664.27C1152 1665.51 1152 1666.76 1152 1668.01C1319.55 1739.78 1380.63 1627.63 1380.63 1627.38Z" fill="#F3F6FA"/>
<path d="M1531.22 1744.52C1517.26 1775.18 1499.81 1861.91 1310.82 1948.89C1358.94 1977.55 1415.04 1994 1475.12 1994C1519.26 1994 1561.39 1985.03 1599.79 1968.83C1619.48 1908.02 1655.14 1789.88 1531.22 1744.52Z" fill="#F3F6FA"/>
<path d="M1609.51 1736.3C1563.14 1702.4 1479.86 1698.66 1412.54 1611.93C1344.73 1524.7 1338.74 1430.24 1334.51 1393.6C1332.26 1536.91 1380.13 1593.49 1401.08 1629.38C1316.3 1760.47 1186.91 1735.8 1157.24 1728.07C1158.73 1736.79 1160.73 1745.27 1162.97 1753.74C1333.26 1781.9 1403.57 1648.07 1409.3 1638.35C1430 1664.27 1450.19 1678.72 1454.93 1681.96C1382.13 1812.31 1271.68 1852.94 1218.32 1866.89C1240.76 1896.3 1268.19 1921.97 1299.35 1942.16C1378.64 1907.27 1469.64 1848.2 1517.76 1717.6C1517.76 1717.6 1562.64 1736.3 1593.3 1755.98C1634.44 1783.65 1664.36 1831.25 1660.37 1934.93C1676.08 1923.72 1690.79 1911.26 1704.25 1897.55C1699.77 1806.33 1654.14 1766.7 1609.51 1736.3Z" fill="#F3F6FA"/>
<path d="M1553.66 1582.77C1676.83 1557.35 1752.87 1585.01 1792.76 1611.18C1782.29 1553.86 1756.86 1501.77 1720.71 1459.4C1719.71 1458.15 1718.71 1456.91 1717.47 1455.66C1716.72 1454.66 1715.72 1453.67 1714.97 1452.67C1712.48 1449.93 1709.99 1447.19 1707.25 1444.45C1677.83 1414.04 1643.92 1390.86 1607.77 1374.66C1536.71 1477.34 1552.17 1574.05 1553.66 1582.77Z" fill="#F3F6FA"/>
<path d="M1536.21 1602.96C1535.71 1601.46 1522.25 1483.58 1596.55 1370.18C1594.05 1369.18 1591.31 1368.18 1588.82 1367.18C1523.49 1447.19 1515.52 1510.74 1508.28 1535.91C1475.37 1523.45 1465.15 1514.73 1460.41 1498.28C1450.44 1437.72 1515.27 1386.87 1563.39 1358.71C1561.89 1358.21 1560.14 1357.46 1558.15 1356.72C1551.42 1354.97 1544.69 1353.48 1537.95 1351.98C1483.35 1382.89 1462.66 1432.48 1462.66 1432.48C1467.15 1401.08 1486.59 1367.93 1503.8 1347.74C1502.05 1347.5 1498.81 1347 1495.32 1346.5C1491.33 1346.25 1487.59 1346 1483.6 1346C1423.27 1429.24 1446.95 1494.54 1451.44 1511.99C1390.1 1470.12 1378.64 1401.58 1372.15 1362.7C1366.42 1364.69 1360.68 1366.69 1355.2 1368.93C1352.46 1370.42 1350.21 1371.92 1348.72 1372.42C1379.13 1505.51 1493.33 1553.36 1503.05 1557.35C1501.3 1564.33 1497.56 1579.03 1490.83 1599.22C1404.07 1571.55 1380.63 1522.95 1369.16 1509C1398.33 1583.02 1491.58 1627.13 1537.21 1642.58C1576.85 1655.54 1654.64 1660.28 1704.5 1690.19C1739.91 1710.62 1769.33 1751.5 1782.04 1770.69C1791.77 1740.53 1797.5 1708.63 1798 1675.23C1761.85 1640.34 1685.06 1595.73 1536.21 1602.96Z" fill="#F3F6FA"/>
<circle cx="882.5" cy="952.5" r="8.5" fill="#2B72C0"/>
<circle cx="1415.5" cy="1306.5" r="8.5" fill="#2B72C0"/>
<circle cx="118.5" cy="700.5" r="8.5" fill="#2B72C0"/>
<circle cx="1871.5" cy="825.5" r="8.5" fill="#2B72C0"/>
</svg>
